proj_01/simulation/qsim/project_01.msim.vcd
$comment
	File created using the following command:
		vcd file project_01.msim.vcd -direction
$end
$date
	Mon Oct 14 20:18:18 2013
$end
$version
	ModelSim Version 10.1d
$end
$timescale
	1ps
$end
$scope module project_01_vlg_vec_tst $end
$var reg 1 ! X0 $end
$var reg 1 " X1 $end
$var reg 1 # X2 $end
$var reg 1 $ Y0 $end
$var reg 1 % Y1 $end
$var reg 1 & Y2 $end
$var wire 1 ' E $end
$var wire 1 ( N $end
$var wire 1 ) sampler $end
$scope module i1 $end
$var wire 1 * gnd $end
$var wire 1 + vcc $end
$var wire 1 , unknown $end
$var tri1 1 - devclrn $end
$var tri1 1 . devpor $end
$var tri1 1 / devoe $end
$var wire 1 0 E~output_o $end
$var wire 1 1 N~output_o $end
$var wire 1 2 X0~input_o $end
$var wire 1 3 Y0~input_o $end
$var wire 1 4 X2~input_o $end
$var wire 1 5 Y2~input_o $end
$var wire 1 6 X1~input_o $end
$var wire 1 7 Y1~input_o $end
$var wire 1 8 inst3~combout $end
$var wire 1 9 inst4~0_combout $end
$upscope $end
$upscope $end
$enddefinitions $end
#0
$dumpvars
0!
0"
0#
0$
0%
0&
1'
0(
x)
0*
1+
x,
1-
1.
1/
10
01
02
03
04
05
06
07
18
09
$end
#10000
1!
12
0)
08
00
0'
#20000
1"
0!
16
02
1)
#30000
1!
12
0)
#40000
1#
0"
0!
14
06
02
1)
#50000
1!
12
0)
#60000
1"
0!
16
02
1)
#70000
1!
12
0)
#80000
1$
0#
0"
0!
13
04
06
02
1)
#90000
1!
12
0)
18
10
1'
#100000
1"
0!
16
02
1)
08
00
0'
#110000
1!
12
0)
#120000
1#
0"
0!
14
06
02
1)
#130000
1!
12
0)
#140000
1"
0!
16
02
1)
#150000
1!
12
0)
#160000
1%
0$
0#
0"
0!
17
03
04
06
02
1)
19
11
1(
#170000
1!
12
0)
#180000
1"
0!
16
02
1)
18
09
10
01
1'
0(
#190000
1!
12
0)
08
00
0'
#200000
1#
0"
0!
14
06
02
1)
#210000
1!
12
0)
#220000
1"
0!
16
02
1)
#230000
1!
12
0)
#240000
1$
0#
0"
0!
13
04
06
02
1)
19
11
1(
#250000
1!
12
0)
#260000
1"
0!
16
02
1)
09
01
0(
#270000
1!
12
0)
18
10
1'
#280000
1#
0"
0!
14
06
02
1)
08
00
0'
#290000
1!
12
0)
#300000
1"
0!
16
02
1)
#310000
1!
12
0)
#320000
1&
0%
0$
0#
0"
0!
15
07
03
04
06
02
1)
19
11
1(
#330000
1!
12
0)
#340000
1"
0!
16
02
1)
#350000
1!
12
0)
#360000
1#
0"
0!
14
06
02
1)
18
09
10
01
1'
0(
#370000
1!
12
0)
08
00
0'
#380000
1"
0!
16
02
1)
#390000
1!
12
0)
#400000
1$
0#
0"
0!
13
04
06
02
1)
19
11
1(
#410000
1!
12
0)
#420000
1"
0!
16
02
1)
#430000
1!
12
0)
#440000
1#
0"
0!
14
06
02
1)
09
01
0(
#450000
1!
12
0)
18
10
1'
#460000
1"
0!
16
02
1)
08
00
0'
#470000
1!
12
0)
#480000
1%
0$
0#
0"
0!
17
03
04
06
02
1)
19
11
1(
#490000
1!
12
0)
#500000
1"
0!
16
02
1)
#510000
1!
12
0)
#520000
1#
0"
0!
14
06
02
1)
#530000
1!
12
0)
#540000
1"
0!
16
02
1)
18
09
10
01
1'
0(
#550000
1!
12
0)
08
00
0'
#560000
1$
0#
0"
0!
13
04
06
02
1)
19
11
1(
#570000
1!
12
0)
#580000
1"
0!
16
02
1)
#590000
1!
12
0)
#600000
1#
0"
0!
14
06
02
1)
#610000
1!
12
0)
#620000
1"
0!
16
02
1)
09
01
0(
#630000
1!
12
0)
18
10
1'
